{
  "items":[
    {
      "id": 0,
      "skillName": "React Native",
      "category": "Library",
      "categoryName": "Framework / Library",
      "logoUrl": "https://img.favpng.com/4/1/17/react-javascript-vue-js-logo-png-favpng-T97hHj5T2UsnURsbZ0PB5Mi3c.jpg",
      "iconType": "MaterialCommunityIcons",
      "iconName": "react",
      "percentageProgress": "50%"
    },
    {
      "id": 1,
      "skillName": "Laravel",
      "category": "Library",
      "categoryName": "Framework / Library",
      "logoUrl": "https://www.designbust.com/download/168/png/laravel_icon512.png",
      "iconType": "MaterialCommunityIcons",
      "iconName": "laravel",
      "percentageProgress": "100%"
    },
    {
      "id": 2,
      "skillName": "JavaScript",
      "category": "Language",
      "categoryName": "Bahasa Pemrograman",
      "logoUrl": "https://toppng.com/uploads/preview/javascript-logo-number-angularjs-node-javascript-logo-11563241338go76tq0nxz.png",
      "iconType": "MaterialCommunityIcons",
      "iconName": "language-javascript",
      "percentageProgress": "30%"
    },
    {
      "id": 3,
      "skillName": "Python",
      "category": "Language",
      "categoryName": "Bahasa Pemrograman",
      "logoUrl": "https://img2.pngdownload.id/20180320/fkq/kisspng-angle-text-symbol-brand-other-python-5ab0c09b32b4d1.7494578715215330832077.jpg",
      "iconType": "MaterialCommunityIcons",
      "iconName": "language-python",
      "percentageProgress": "70%"
    },
    {
      "id": 4,
      "skillName": "Git",
      "category": "Technology",
      "categoryName": "Teknologi",
      "logoUrl": "https://git-scm.com/images/logos/logomark-orange@2x.png",
      "iconType": "MaterialCommunityIcons",
      "iconName": "git",
      "percentageProgress": "75%"
    },
    {
      "id": 5,
      "skillName": "Gitlab",
      "category": "Technology",
      "categoryName": "Teknologi",
      "logoUrl": "https://www.designbust.com/download/168/png/laravel_icon512.png",
      "iconType": "MaterialCommunityIcons",
      "iconName": "gitlab",
      "percentageProgress": "60%"
    }
  ]
}